<svg width="20" height="19" viewBox="0 0 20 19" fill="none" xmlns="http://www.w3.org/2000/svg">
<g clip-path="url(#clip0)">
<path fill-rule="evenodd" clip-rule="evenodd" d="M3.27178 3.93246C2.83031 3.93246 2.46575 4.26788 2.46575 4.67408V13.5735C2.46575 13.9797 2.83031 14.3151 3.27178 14.3151H16.1682C16.6097 14.3151 16.9743 13.9797 16.9743 13.5735V4.67408C16.9743 4.26788 16.6097 3.93246 16.1682 3.93246H3.27178ZM0.853699 4.67408C0.853699 3.44871 1.93999 2.44922 3.27178 2.44922H16.1682C17.5 2.44922 18.5863 3.44871 18.5863 4.67408V13.5735C18.5863 14.7989 17.5 15.7984 16.1682 15.7984H3.27178C1.93999 15.7984 0.853699 14.7989 0.853699 13.5735V4.67408Z" fill="#525252"/>
<path fill-rule="evenodd" clip-rule="evenodd" d="M0.999411 4.24877C1.25469 3.91322 1.75727 3.83162 2.12196 4.0665L9.72001 8.96013L17.3181 4.0665C17.6828 3.83162 18.1853 3.91322 18.4406 4.24877C18.6959 4.58431 18.6072 5.04673 18.2425 5.28161L10.1822 10.4729C9.90471 10.6517 9.53532 10.6517 9.25779 10.4729L1.19751 5.28161C0.832821 5.04673 0.74413 4.58431 0.999411 4.24877Z" fill="#525252"/>
</g>
<defs>
<clipPath id="clip0">
<rect width="19.3447" height="17.7989" fill="white" transform="translate(0.0476685 0.224365)"/>
</clipPath>
</defs>
</svg>
